{
  "data": [
    {
      "id": "9171293792374912734923",
      "title": "Hello World (Second)",
      "date": "2019-10-28T13:33:17.665Z",
      "preview": "Lorum Ipsum is a placefolder for web developer.Lorum Ipsum is a placefolder for web developer.Lorum Ipsum is a placefolder for web developer.Lorum Ipsum is a placefolder for web developer.Lorum Ipsum is a placefolder for web developer.Lorum Ipsum is a placefolder for web developer.Lorum Ipsum is a placefolder for web developer."
    },
    {
      "id": "4",
      "title": "Hello World (Second)",
      "date": "2019-10-28T13:33:17.665Z",
      "preview": "Lorum Ipsum is a placefolder for web developer. Lorum Ipsum is a placefolder for web developer. Lorum Ipsum is a placefolder for web developer. Lorum Ipsum is a placefolder for web developer. Lorum Ipsum is a placefolder for web developer. Lorum Ipsum is a placefolder for web developer. Lorum Ipsum is a placefolder for web developer."
    },
    {
      "id": "3",
      "title": "Hello World (Second)",
      "date": "2019-10-28T13:33:17.665Z",
      "preview": "Lorum Ipsum is a placefolder for web developer. Lorum Ipsum is a placefolder for web developer. Lorum Ipsum is a placefolder for web developer. Lorum Ipsum is a placefolder for web developer. Lorum Ipsum is a placefolder for web developer. Lorum Ipsum is a placefolder for web developer. Lorum Ipsum is a placefolder for web developer."
    },
    {
      "id": "2",
      "title": "Hello World (Second)",
      "date": "2019-10-28T13:33:17.665Z",
      "preview": "Lorum Ipsum is a placefolder for web developer. Lorum Ipsum is a placefolder for web developer. Lorum Ipsum is a placefolder for web developer. Lorum Ipsum is a placefolder for web developer. Lorum Ipsum is a placefolder for web developer. Lorum Ipsum is a placefolder for web developer. Lorum Ipsum is a placefolder for web developer."
    },
    {
      "id": "1",
      "title": "Hello World",
      "date": "2019-10-28T13:33:17.665Z",
      "preview": "Lorum Ipsum is a placefolder for web developer."
    }
  ]
}